C:\Users\manis\Documents\Programering-2-2023\Paths\src\test\java\no\ntnu\model\StoryTest.java
C:\Users\manis\Documents\Programering-2-2023\Paths\src\test\java\no\ntnu\model\PlayerTest.java
C:\Users\manis\Documents\Programering-2-2023\Paths\src\test\java\no\ntnu\model\PassageTest.java
C:\Users\manis\Documents\Programering-2-2023\Paths\src\test\java\no\ntnu\model\LinkTest.java
C:\Users\manis\Documents\Programering-2-2023\Paths\src\test\java\no\ntnu\model\GameTest.java
